service_id,monday,tuesday,wednesday,thursday,friday,saturday,sunday,start_date,end_date
cal1-wed-sat-12,0,0,1,0,0,1,0,20211208,20220430
cal2-tue-thu-12,0,1,0,1,0,0,0,20211209,20220428
cal3-fri-6,0,0,0,0,1,0,0,20211210,20220429
cal4-sun-4,0,0,0,0,0,0,1,20211212,20220410
cal5-mon-6,1,0,0,0,0,0,0,20211213,20220425
cal10-mon-tue-thu-fri-24,1,1,0,1,1,0,0,20211209,20220429
cal13-wed-6,0,0,1,0,0,0,0,20211208,20220427
cal14-sat-6,0,0,0,0,0,1,0,20211211,20220430
cal15-mon-tue-wed-thu-fri-sat-36,1,1,1,1,1,1,0,20211208,20220430
cal17-mon-tue-thu-18,1,1,0,1,0,0,0,20211209,20220428