route_id,agency_id,route_short_name,route_long_name,route_desc,route_type,route_url,route_color,route_text_color,route_sort_order,continuous_pickup,continuous_drop_off
zenbus:Line:534710001:LOC,,2,Hôpital <> C.Cial Mivoix <> Petit Courgain <> Théâtre <> L.Détroit,Ligne 2,3,,E30917,FFFFFF,0,,
zenbus:Line:546560001:LOC,,3,La Française <> Blériot <> Calais Nord <> Théâtre <> Zone Curie <> Hôpital,Ligne 3,3,,003597,FFFFFF,0,,
zenbus:Line:561180001:LOC,,4,Fort Nieulay <> Coubertin <> Gare SNCF <> Théâtre <> Zone Universitaire <> Utrillo,Ligne 4,3,,FF9900,FFFFFF,0,,
zenbus:Line:537730001:LOC,,6,Théâtre <> Fontinettes <> Coulogne <> Guînes <> Hames-Boucres <> Fréthun,Ligne 6,3,,FFFF00,993300,0,,
zenbus:Line:566940001:LOC,,5,Théâtre <> Gare SNCF <> Calais Nord <> Plage <> Blériot <> Sangatte,Ligne 5,3,,00CCFF,FFFFFF,0,,
zenbus:Line:566950001:LOC,,7,Théâtre <> Cailloux <> Coulogne <> Virval <> Hôpital <> Nation <> Théâtre,Ligne 7,3,,996600,FFFFFF,0,,
zenbus:Line:540230001:LOC,,8,Gare <> Théâtre <> Nation <> Bd Victore Hugo <> Coulogne Mairie <> Les Attaques Contre Hallage,Ligne 8,3,,99CC66,FFFFFF,0,,
zenbus:Line:549900001:LOC,,10,Palominos <> Z.I Des Dunes <> C.Cial Mivoix <> Hôpital,Ligne 10,3,,FF6699,FFFFFF,0,,
zenbus:Line:553860001:LOC,,11,Fort Vert <> Palominos <> Mairie De Marck,Ligne 11,3,,999999,FFFFFF,0,,
zenbus:Line:542480001:LOC,,12,Gare TGV <> Cité Europe Eurotunnel (PS1),Ligne 12,3,,F29100,FFFFFF,0,,
zenbus:Line:549910001:LOC,,13,Cité europe <> peuplingues <> bonningues les calais <> pihen les guines <> guines,Ligne 13,3,,8080FF,FFFFFF,0,,
zenbus:Line:561190001:LOC,,19,Terminal Transmanche <> Rue Royale <> Gare Sncf <> 4B <> Jardin des Plantes,Ligne BALAD'IN,3,,FF8080,FFFFFF,0,,
zenbus:Line:570820023:LOC,,20,Ligne Calais Majest'in,Ligne MAJEST'IN,4,,993366,FFFFFF,0,,
zenbus:Line:577450010:LOC,,1,Rond Point d Oye <> Marck Aérodrome <>Théâtre <> Fort Nieulay <> Cité Europe,Ligne 1,3,,107934,FFFFFF,0,,